{
"type": "FeatureCollection",
"name": "butta",
"crs": { "type": "name", "properties": { "name": "urn:ogc:def:crs:OGC:1.3:CRS84" } },
"features": [
{ "type": "Feature", "properties": { "full_id": "w163559389", "osm_id": "163559389", "osm_type": "way", "highway": "primary", "lanes": "2", "name": "Alois-Negrelli-Straße - Via Luigi Negrelli", "name:it": "Via Luigi Negrelli", "oneway": "no", "ref": "SS49", "surface": "", "maxspeed": "90", "name:de": "Alois-Negrelli-Straße", "nat_ref": "SS49", "agricultural": "", "bicycle": "", "bridge": "yes", "foot": "", "int_ref": "E 66", "layer": "1", "tunnel": "", "cycleway:both": "", "embankment": "", "lanes:backward": "", "lanes:forward": "", "turn:lanes:backward": "", "maxspeed:type": "", "junction": "", "cutting": "", "maxspeed:backward": "", "maxspeed:forward": "", "turn:lanes:forward": "", "lanes:both_ways": "", "turn:lanes:both_ways": "" }, "geometry": { "type": "MultiLineString", "coordinates": [ [ [ 11.8989272, 46.7843967, 807.0 ], [ 11.8991238, 46.7844513, 804.0 ], [ 11.8992947, 46.7844994, 804.0 ], [ 11.8994981, 46.7845592, 802.0 ], [ 11.8996383, 46.7846011, 808.0 ], [ 11.8998188, 46.78466, 808.0 ], [ 11.9000025, 46.7847184, 803.0 ], [ 11.9002918, 46.7848095, 801.0 ], [ 11.9004018, 46.7848463, 801.0 ], [ 11.9006348, 46.7849252, 805.0 ], [ 11.9008678, 46.7850024, 803.0 ], [ 11.9014309, 46.7851901, 808.0 ], [ 11.9015565, 46.785232, 807.0 ], [ 11.9019175, 46.7853477, 806.0 ], [ 11.902166, 46.7854334, 808.0 ], [ 11.9022734, 46.7854704, 808.0 ], [ 11.9025, 46.7855432, 806.0 ], [ 11.9028072, 46.7856456, 807.0 ], [ 11.9031124, 46.7857494, 816.0 ], [ 11.9033172, 46.7858139, 816.0 ], [ 11.9034708, 46.785863, 816.0 ], [ 11.903647, 46.785912, 810.0 ], [ 11.9037576, 46.7859387, 808.0 ], [ 11.9038477, 46.7859597, 808.0 ], [ 11.9039562, 46.785978, 814.0 ], [ 11.9040607, 46.785992, 813.0 ], [ 11.9041774, 46.7860004, 813.0 ], [ 11.9042882, 46.7860058, 813.0 ], [ 11.9044017, 46.7860044, 816.0 ], [ 11.9045121, 46.785999, 816.0 ], [ 11.9046052, 46.7859896, 820.0 ], [ 11.9047207, 46.7859784, 820.0 ], [ 11.9048522, 46.7859577, 809.0 ], [ 11.9049595, 46.7859364, 811.0 ], [ 11.9050245, 46.7859211, 811.0 ], [ 11.9051066, 46.7859009, 811.0 ], [ 11.9052108, 46.7858639, 810.0 ], [ 11.905291, 46.7858322, 810.0 ], [ 11.9058465, 46.7855826, 804.0 ], [ 11.9061342, 46.7854498, 803.0 ], [ 11.9062264, 46.7854059, 805.0 ], [ 11.9064613, 46.7852941, 805.0 ], [ 11.9065182, 46.7852685, 805.0 ], [ 11.9067121, 46.7851697, 806.0 ], [ 11.9068988, 46.78506, 809.0 ], [ 11.9070708, 46.7849669, 809.0 ], [ 11.9072188, 46.7848738, 809.0 ], [ 11.9073708, 46.7847779, 809.0 ], [ 11.9075188, 46.7846765, 809.0 ], [ 11.9076587, 46.7845773, 808.0 ], [ 11.9078789, 46.7843999, 808.0 ], [ 11.9081349, 46.7841862, 809.0 ], [ 11.9082669, 46.7840602, 811.0 ], [ 11.9084069, 46.7839369, 812.0 ], [ 11.9086087, 46.7837416, 813.0 ], [ 11.9087549, 46.7836, 813.0 ], [ 11.908911, 46.7834576, 813.0 ], [ 11.909123, 46.7832822, 813.0 ], [ 11.9092874, 46.7831503, 815.0 ], [ 11.909443, 46.7830357, 815.0 ], [ 11.909619, 46.7829097, 816.0 ], [ 11.9100551, 46.7826467, 816.0 ], [ 11.9107271, 46.7822851, 817.0 ], [ 11.9112792, 46.7820222, 816.0 ], [ 11.9118632, 46.7818112, 816.0 ], [ 11.9125157, 46.7815952, 818.0 ], [ 11.9131394, 46.7814332, 821.0 ], [ 11.9138901, 46.7812914, 827.0 ], [ 11.9146491, 46.7811687, 833.0 ], [ 11.9153471, 46.7810519, 829.0 ], [ 11.9160841, 46.7809112, 837.0 ], [ 11.9183189, 46.7804531, 841.0 ], [ 11.9189759, 46.7803402, 850.0 ], [ 11.91946, 46.7802744, 850.0 ], [ 11.920032, 46.7802306, 850.0 ], [ 11.9206801, 46.7802114, 848.0 ], [ 11.9214682, 46.7802224, 856.0 ], [ 11.9221362, 46.7802828, 858.0 ], [ 11.9226603, 46.7803402, 870.0 ], [ 11.9232044, 46.780436, 873.0 ], [ 11.9264234, 46.7811092, 890.0 ], [ 11.9270767, 46.7812496, 897.0 ], [ 11.9277208, 46.7814157, 899.0 ], [ 11.9278411, 46.7814501, 899.0 ], [ 11.9280125, 46.7815079, 908.0 ], [ 11.929287, 46.7819346, 916.0 ], [ 11.9304459, 46.7823806, 914.0 ], [ 11.9326012, 46.783343, 928.0 ], [ 11.9355189, 46.7848083, 942.0 ], [ 11.9365875, 46.7853291, 940.0 ], [ 11.9378154, 46.785836, 952.0 ], [ 11.9393233, 46.7863565, 945.0 ], [ 11.9411698, 46.7868959, 913.0 ], [ 11.9428421, 46.7872911, 904.0 ], [ 11.9433442, 46.7874045, 904.0 ], [ 11.9447923, 46.7877376, 903.0 ], [ 11.9456703, 46.7879252, 903.0 ], [ 11.9464392, 46.7880768, 905.0 ], [ 11.9470365, 46.7881635, 905.0 ], [ 11.9476162, 46.7882164, 907.0 ], [ 11.9481963, 46.7882419, 909.0 ], [ 11.9495627, 46.7882371, 906.0 ], [ 11.9503719, 46.7882329, 891.0 ], [ 11.951195, 46.7882606, 870.0 ], [ 11.9517972, 46.7883389, 871.0 ], [ 11.9523125, 46.7884325, 883.0 ], [ 11.9527668, 46.7885435, 897.0 ], [ 11.9531847, 46.7886572, 901.0 ], [ 11.9532943, 46.7886902, 903.0 ], [ 11.9534571, 46.7887482, 903.0 ], [ 11.9536048, 46.7888053, 899.0 ], [ 11.9540955, 46.7890517, 900.0 ], [ 11.9542681, 46.7891267, 900.0 ], [ 11.9545462, 46.7892565, 902.0 ], [ 11.9548088, 46.7893696, 906.0 ], [ 11.9550311, 46.789458, 909.0 ], [ 11.9552833, 46.7895507, 911.0 ], [ 11.955622, 46.7896555, 909.0 ], [ 11.9558788, 46.7897234, 910.0 ], [ 11.956187, 46.7897961, 909.0 ], [ 11.9568874, 46.7899667, 909.0 ], [ 11.9575793, 46.7901278, 910.0 ], [ 11.9579545, 46.7902165, 911.0 ], [ 11.9584821, 46.7903423, 917.0 ], [ 11.9589743, 46.7904709, 917.0 ], [ 11.9595011, 46.790603, 919.0 ], [ 11.9599601, 46.7907225, 922.0 ], [ 11.9607443, 46.7909165, 929.0 ], [ 11.9610694, 46.7909982, 925.0 ], [ 11.9612371, 46.7910504, 925.0 ], [ 11.961392, 46.7910973, 927.0 ], [ 11.9615724, 46.7911756, 929.0 ], [ 11.9617781, 46.7912869, 925.0 ], [ 11.9619585, 46.791386, 928.0 ], [ 11.9623319, 46.7915932, 928.0 ], [ 11.96269, 46.7917878, 930.0 ], [ 11.963066, 46.7919739, 930.0 ], [ 11.9635731, 46.7922238, 933.0 ], [ 11.9638509, 46.7923669, 934.0 ], [ 11.9640287, 46.7924678, 935.0 ], [ 11.9641481, 46.7925443, 935.0 ], [ 11.964265, 46.7926312, 935.0 ], [ 11.9643502, 46.792704, 936.0 ], [ 11.9646374, 46.7929496, 943.0 ], [ 11.9650194, 46.7932991, 945.0 ], [ 11.9653775, 46.7936208, 946.0 ], [ 11.9654436, 46.7936643, 952.0 ], [ 11.9655096, 46.7936973, 952.0 ], [ 11.9655935, 46.7937269, 952.0 ], [ 11.965662, 46.7937512, 941.0 ], [ 11.9657357, 46.7937634, 945.0 ], [ 11.9658145, 46.7937686, 945.0 ], [ 11.9658907, 46.7937686, 945.0 ], [ 11.9659669, 46.7937634, 945.0 ], [ 11.9660355, 46.7937495, 953.0 ], [ 11.9661574, 46.7937199, 953.0 ], [ 11.9665054, 46.7935999, 951.0 ], [ 11.9667797, 46.793506, 949.0 ], [ 11.966988, 46.7934399, 953.0 ], [ 11.9671201, 46.7934017, 953.0 ], [ 11.967209, 46.7933791, 953.0 ], [ 11.9674503, 46.7933338, 951.0 ], [ 11.9681006, 46.7932365, 949.0 ], [ 11.9695055, 46.7930411, 956.0 ], [ 11.9696116, 46.7930263, 957.0 ], [ 11.9709213, 46.7928435, 956.0 ], [ 11.9713156, 46.7927884, 957.0 ], [ 11.9717676, 46.7927293, 958.0 ], [ 11.9722571, 46.7926594, 959.0 ], [ 11.9724419, 46.7926335, 959.0 ], [ 11.972792, 46.7925828, 959.0 ], [ 11.9733085, 46.7925061, 959.0 ], [ 11.9735002, 46.7924815, 959.0 ], [ 11.9737022, 46.7924552, 959.0 ], [ 11.9738658, 46.792437, 959.0 ], [ 11.9739984, 46.7924287, 959.0 ], [ 11.9741494, 46.792429, 959.0 ], [ 11.9743584, 46.7924437, 959.0 ], [ 11.9746387, 46.7924805, 959.0 ], [ 11.975521, 46.7926541, 960.0 ], [ 11.9763154, 46.7928153, 957.0 ], [ 11.9765736, 46.792854, 956.0 ], [ 11.976809, 46.7928649, 957.0 ], [ 11.9769617, 46.7928533, 957.0 ], [ 11.9770239, 46.7928486, 957.0 ], [ 11.9772389, 46.7928168, 960.0 ], [ 11.977481, 46.792758, 963.0 ], [ 11.9789019, 46.7923851, 961.0 ], [ 11.9796215, 46.7921983, 963.0 ], [ 11.9801868, 46.7920495, 964.0 ], [ 11.980249, 46.7920331, 964.0 ], [ 11.9806758, 46.7919233, 965.0 ], [ 11.980841, 46.791877, 966.0 ], [ 11.9809953, 46.7918363, 966.0 ], [ 11.9824521, 46.7914545, 964.0 ], [ 11.9830047, 46.791336, 967.0 ], [ 11.9832561, 46.7913018, 968.0 ], [ 11.9835815, 46.791253, 969.0 ], [ 11.9836734, 46.7912374, 964.0 ], [ 11.9839893, 46.7911893, 964.0 ], [ 11.9842627, 46.7911645, 966.0 ], [ 11.9845325, 46.7911563, 968.0 ], [ 11.984647, 46.7911514, 968.0 ], [ 11.9849454, 46.7911573, 967.0 ], [ 11.9852626, 46.7911685, 967.0 ], [ 11.9855047, 46.7911995, 968.0 ], [ 11.9858124, 46.7912413, 968.0 ], [ 11.986007, 46.7912584, 974.0 ], [ 11.9861494, 46.7912634, 974.0 ], [ 11.9862334, 46.791258, 974.0 ], [ 11.9863012, 46.7912537, 975.0 ], [ 11.9864683, 46.7912109, 970.0 ], [ 11.9865727, 46.7911592, 972.0 ], [ 11.9866926, 46.7910771, 972.0 ], [ 11.9868126, 46.7909687, 973.0 ], [ 11.9869234, 46.7908757, 973.0 ], [ 11.9870411, 46.7907952, 973.0 ], [ 11.9872049, 46.7907291, 975.0 ], [ 11.9873511, 46.7906883, 967.0 ], [ 11.9875276, 46.790665, 970.0 ], [ 11.9877882, 46.790641, 971.0 ], [ 11.9884598, 46.7905845, 971.0 ], [ 11.9890303, 46.7905453, 974.0 ], [ 11.9892382, 46.7905426, 974.0 ], [ 11.9893785, 46.790555, 975.0 ], [ 11.9895111, 46.7905773, 975.0 ], [ 11.9897224, 46.7906464, 974.0 ], [ 11.9898985, 46.7907291, 978.0 ], [ 11.9902559, 46.7909227, 976.0 ], [ 11.9905325, 46.7910725, 981.0 ], [ 11.9910271, 46.7913389, 985.0 ], [ 11.9911693, 46.7914189, 985.0 ], [ 11.9913109, 46.7914846, 982.0 ], [ 11.9914761, 46.7915372, 994.0 ], [ 11.9917046, 46.7915853, 990.0 ], [ 11.9917625, 46.7915947, 990.0 ], [ 11.9925537, 46.7917236, 987.0 ], [ 11.993193, 46.7918226, 992.0 ], [ 11.9936569, 46.7919047, 992.0 ], [ 11.9937162, 46.7919152, 992.0 ], [ 11.9937309, 46.7919179, 992.0 ], [ 11.9942785, 46.7920176, 984.0 ], [ 11.9943889, 46.7920386, 979.0 ], [ 11.9948215, 46.7921148, 983.0 ], [ 11.9951078, 46.7921554, 983.0 ], [ 11.995316, 46.7921662, 986.0 ], [ 11.9953724, 46.792163, 986.0 ], [ 11.9954112, 46.7921607, 986.0 ], [ 11.9955533, 46.7921319, 991.0 ], [ 11.9957572, 46.7920624, 986.0 ], [ 11.9958862, 46.7920004, 986.0 ], [ 11.9959646, 46.791941, 986.0 ], [ 11.9960374, 46.7918702, 991.0 ], [ 11.996074, 46.7918347, 991.0 ], [ 11.9961638, 46.7916638, 985.0 ], [ 11.9963252, 46.7912285, 985.0 ], [ 11.9963636, 46.7910337, 985.0 ], [ 11.9963774, 46.7908267, 987.0 ], [ 11.9963395, 46.7902927, 997.0 ], [ 11.9963523, 46.7901274, 994.0 ], [ 11.9963806, 46.7900058, 994.0 ], [ 11.9964428, 46.7898842, 994.0 ], [ 11.9965341, 46.7897835, 997.0 ], [ 11.9966759, 46.7896952, 997.0 ], [ 11.9968302, 46.7896276, 1004.0 ], [ 11.9970945, 46.789562, 1002.0 ], [ 11.9972567, 46.7895376, 1002.0 ], [ 11.9974631, 46.7895066, 1004.0 ], [ 11.9975741, 46.7894942, 1004.0 ], [ 11.99797, 46.7894648, 1001.0 ], [ 11.9981736, 46.7894446, 1001.0 ], [ 11.9983565, 46.7894151, 1000.0 ], [ 11.9985734, 46.789377, 998.0 ], [ 11.998785, 46.7893101, 998.0 ], [ 11.9988389, 46.7892792, 999.0 ], [ 11.9989536, 46.7891865, 999.0 ], [ 11.9990192, 46.7890951, 999.0 ], [ 11.9990258, 46.7889948, 1002.0 ], [ 11.9990169, 46.7889156, 1002.0 ], [ 11.9989694, 46.7887867, 1002.0 ], [ 11.9988701, 46.7885855, 1002.0 ], [ 11.9988368, 46.7884418, 1001.0 ], [ 11.9988209, 46.7883303, 1001.0 ], [ 11.99883, 46.7882513, 1001.0 ], [ 11.9988462, 46.7881748, 999.0 ], [ 11.9990238, 46.7877588, 995.0 ], [ 11.9991083, 46.7876316, 991.0 ], [ 11.9992043, 46.7875509, 991.0 ], [ 11.9992984, 46.7875092, 991.0 ], [ 11.999448, 46.7874811, 989.0 ], [ 11.9996016, 46.7874828, 988.0 ], [ 11.9997685, 46.7875073, 988.0 ], [ 12.0006275, 46.7877766, 985.0 ], [ 12.0011059, 46.787926, 988.0 ], [ 12.0012964, 46.7879709, 988.0 ], [ 12.0020062, 46.7880873, 988.0 ], [ 12.0022897, 46.7881289, 989.0 ], [ 12.0024703, 46.7881335, 991.0 ], [ 12.002602, 46.788118, 991.0 ], [ 12.0027448, 46.7880607, 992.0 ], [ 12.0028602, 46.7879594, 992.0 ], [ 12.0029052, 46.7878609, 993.0 ], [ 12.0029118, 46.7877799, 993.0 ], [ 12.0028984, 46.7876951, 993.0 ], [ 12.0028693, 46.7876356, 999.0 ], [ 12.0027853, 46.787537, 999.0 ], [ 12.0026435, 46.7873958, 999.0 ], [ 12.0025635, 46.7872938, 994.0 ], [ 12.0025308, 46.7872148, 994.0 ], [ 12.002516, 46.7871311, 994.0 ], [ 12.0025318, 46.7870397, 991.0 ], [ 12.0025761, 46.7869406, 991.0 ], [ 12.0026636, 46.7868382, 998.0 ], [ 12.0029023, 46.7866386, 990.0 ], [ 12.0031483, 46.7864347, 991.0 ], [ 12.0032378, 46.7863472, 997.0 ], [ 12.0033327, 46.7862405, 992.0 ], [ 12.0034505, 46.7860714, 992.0 ], [ 12.0035629, 46.7858898, 993.0 ], [ 12.0038052, 46.7854836, 994.0 ], [ 12.0039483, 46.785258, 987.0 ], [ 12.0040501, 46.7851216, 989.0 ], [ 12.0041548, 46.7850148, 989.0 ], [ 12.004299, 46.7849031, 989.0 ], [ 12.0044371, 46.7848288, 989.0 ], [ 12.0045826, 46.7847719, 989.0 ], [ 12.0047741, 46.7847139, 991.0 ], [ 12.0054097, 46.7845774, 985.0 ], [ 12.0064572, 46.7843326, 993.0 ], [ 12.0072806, 46.7841488, 996.0 ], [ 12.0077814, 46.784037, 994.0 ], [ 12.0104902, 46.783431, 998.0 ], [ 12.0112761, 46.7832516, 1002.0 ], [ 12.0116099, 46.7831601, 1001.0 ], [ 12.0118421, 46.7830655, 1004.0 ], [ 12.0120827, 46.782946, 1004.0 ], [ 12.0123128, 46.7827916, 1003.0 ], [ 12.0124848, 46.7826441, 1010.0 ], [ 12.0126927, 46.7824569, 1008.0 ], [ 12.0132853, 46.7818889, 1006.0 ], [ 12.01377, 46.781438, 1006.0 ], [ 12.0141397, 46.7810915, 1008.0 ], [ 12.0142227, 46.7810137, 1008.0 ], [ 12.0144162, 46.7808058, 1008.0 ], [ 12.0145662, 46.7806205, 1005.0 ], [ 12.0146199, 46.7805542, 1008.0 ], [ 12.0147475, 46.7803967, 1004.0 ], [ 12.0152359, 46.7797957, 1006.0 ], [ 12.0157448, 46.7791624, 1004.0 ], [ 12.0161956, 46.778599, 1004.0 ], [ 12.016345, 46.7784208, 1008.0 ], [ 12.0164509, 46.7782856, 1008.0 ], [ 12.0165473, 46.778136, 1011.0 ], [ 12.0166066, 46.7780141, 1011.0 ], [ 12.0166615, 46.7778872, 1009.0 ], [ 12.0166844, 46.7777935, 1009.0 ], [ 12.0167013, 46.7776902, 1009.0 ], [ 12.0167079, 46.7775505, 1008.0 ], [ 12.0167013, 46.7774, 1008.0 ], [ 12.0166651, 46.7769836, 1010.0 ], [ 12.016676, 46.7768168, 1010.0 ], [ 12.0167079, 46.7766877, 1013.0 ], [ 12.0167709, 46.776551, 1013.0 ], [ 12.0168763, 46.7764286, 1015.0 ], [ 12.0170026, 46.7763169, 1015.0 ], [ 12.0171985, 46.776219, 1015.0 ], [ 12.0174014, 46.7761369, 1014.0 ], [ 12.0177144, 46.7760591, 1013.0 ], [ 12.0180198, 46.7759861, 1013.0 ], [ 12.0189639, 46.7758019, 1013.0 ], [ 12.0195598, 46.7756951, 1013.0 ], [ 12.0202587, 46.7755618, 1014.0 ], [ 12.0206079, 46.7754977, 1015.0 ], [ 12.0208394, 46.77545, 1015.0 ], [ 12.021104, 46.7753603, 1013.0 ], [ 12.0215921, 46.7751744, 1021.0 ], [ 12.0220501, 46.7749514, 1019.0 ], [ 12.0225037, 46.7747508, 1016.0 ], [ 12.0226817, 46.7746929, 1019.0 ], [ 12.0228879, 46.7746458, 1019.0 ], [ 12.0231173, 46.7746114, 1023.0 ], [ 12.0234781, 46.7745888, 1025.0 ], [ 12.0242373, 46.7745746, 1009.0 ], [ 12.0249652, 46.7745728, 1016.0 ], [ 12.0257046, 46.7745677, 1019.0 ], [ 12.0264258, 46.7745597, 1021.0 ], [ 12.0274769, 46.7745514, 1017.0 ], [ 12.0282439, 46.774544, 1013.0 ], [ 12.0286712, 46.7745451, 1012.0 ], [ 12.0290653, 46.7745122, 1008.0 ], [ 12.0291945, 46.7744962, 1008.0 ], [ 12.0294176, 46.7744624, 1005.0 ], [ 12.0296943, 46.7743966, 1002.0 ], [ 12.0299441, 46.7743136, 1000.0 ], [ 12.0301598, 46.7742094, 995.0 ], [ 12.0304075, 46.7740768, 995.0 ], [ 12.0306938, 46.773883, 999.0 ], [ 12.0310281, 46.7735958, 1006.0 ], [ 12.0313019, 46.7732874, 1006.0 ], [ 12.031414, 46.773168, 1004.0 ], [ 12.0315407, 46.7730825, 1005.0 ], [ 12.0316638, 46.773023, 1005.0 ], [ 12.0318045, 46.7729699, 1005.0 ], [ 12.0323277, 46.7728114, 1005.0 ], [ 12.0325942, 46.7727353, 1008.0 ], [ 12.0328831, 46.7726624, 1010.0 ], [ 12.0332169, 46.772589, 1007.0 ], [ 12.0337149, 46.7725463, 1006.0 ], [ 12.033832, 46.7725504, 1005.0 ], [ 12.0339133, 46.7725486, 1005.0 ], [ 12.0341168, 46.7725627, 1005.0 ], [ 12.0343971, 46.7725749, 1004.0 ], [ 12.0344388, 46.7725767, 1004.0 ], [ 12.0351005, 46.7726327, 1004.0 ], [ 12.035934, 46.7726877, 1006.0 ], [ 12.0367218, 46.7727446, 1007.0 ], [ 12.0371179, 46.7727899, 1004.0 ], [ 12.0374737, 46.7728539, 1002.0 ], [ 12.0376483, 46.7729077, 1001.0 ], [ 12.037804, 46.7729647, 1009.0 ], [ 12.0380295, 46.7730575, 1008.0 ], [ 12.0382239, 46.7731333, 1007.0 ], [ 12.0384066, 46.7732042, 1010.0 ], [ 12.0385968, 46.7732561, 1009.0 ], [ 12.038774, 46.7732862, 1009.0 ], [ 12.0389462, 46.7732982, 1009.0 ], [ 12.0391218, 46.7732957, 1009.0 ], [ 12.0394544, 46.7732697, 1009.0 ], [ 12.0399495, 46.7732123, 1009.0 ], [ 12.0403587, 46.7731562, 1010.0 ], [ 12.04056, 46.7731052, 1013.0 ], [ 12.0407998, 46.7730106, 1014.0 ], [ 12.0410671, 46.7728731, 1015.0 ], [ 12.0415426, 46.7726004, 1010.0 ], [ 12.041975, 46.7723541, 1008.0 ], [ 12.0426708, 46.7719442, 1017.0 ], [ 12.0432692, 46.7716168, 1016.0 ], [ 12.0434807, 46.7714943, 1016.0 ], [ 12.0436907, 46.7713616, 1016.0 ], [ 12.0438029, 46.7712699, 1016.0 ], [ 12.0439023, 46.7711543, 1016.0 ], [ 12.0441625, 46.7707651, 1014.0 ], [ 12.0442392, 46.7706487, 1014.0 ], [ 12.0443554, 46.7704243, 1016.0 ], [ 12.0443635, 46.7702255, 1021.0 ], [ 12.0443243, 46.7700958, 1026.0 ], [ 12.0442395, 46.7699021, 1023.0 ], [ 12.0441053, 46.7696234, 1028.0 ], [ 12.0440745, 46.7695205, 1031.0 ], [ 12.0440707, 46.7693904, 1031.0 ], [ 12.0440968, 46.7690467, 1034.0 ], [ 12.0440781, 46.7688943, 1036.0 ], [ 12.0440399, 46.7687626, 1036.0 ], [ 12.0439713, 46.7686389, 1038.0 ], [ 12.0438845, 46.7685226, 1038.0 ], [ 12.0435756, 46.7682236, 1040.0 ], [ 12.0434717, 46.7680946, 1040.0 ], [ 12.0434019, 46.7679587, 1040.0 ], [ 12.0433711, 46.767847, 1043.0 ], [ 12.0433422, 46.7676709, 1043.0 ], [ 12.043354, 46.7675267, 1042.0 ], [ 12.0434075, 46.7673915, 1042.0 ], [ 12.043476, 46.7672844, 1044.0 ], [ 12.0435893, 46.7671858, 1044.0 ], [ 12.0437831, 46.7670917, 1047.0 ], [ 12.0440835, 46.7669725, 1049.0 ], [ 12.0443695, 46.7668485, 1051.0 ], [ 12.0445805, 46.7667327, 1053.0 ], [ 12.0447316, 46.7666253, 1053.0 ], [ 12.0448346, 46.7664921, 1054.0 ], [ 12.0449017, 46.7663438, 1055.0 ], [ 12.0449732, 46.7662227, 1052.0 ], [ 12.0450883, 46.7660844, 1052.0 ], [ 12.045211, 46.7659879, 1054.0 ], [ 12.0453651, 46.7659223, 1047.0 ], [ 12.0455516, 46.7658727, 1050.0 ], [ 12.04581, 46.7658274, 1052.0 ], [ 12.0460295, 46.7657772, 1058.0 ], [ 12.046208, 46.7657259, 1058.0 ], [ 12.0463644, 46.7656457, 1058.0 ], [ 12.0464732, 46.7655615, 1058.0 ], [ 12.0465879, 46.7654425, 1064.0 ], [ 12.0466708, 46.76531, 1060.0 ], [ 12.0467228, 46.7651026, 1055.0 ], [ 12.0467602, 46.7648932, 1055.0 ], [ 12.0468206, 46.7645627, 1062.0 ], [ 12.0468943, 46.764193, 1064.0 ], [ 12.0469522, 46.7637972, 1066.0 ], [ 12.0469798, 46.7634894, 1066.0 ], [ 12.0470218, 46.7632792, 1067.0 ], [ 12.0470631, 46.7631311, 1066.0 ], [ 12.0471143, 46.7630085, 1074.0 ], [ 12.0472079, 46.7628496, 1068.0 ], [ 12.0473181, 46.7627061, 1068.0 ], [ 12.0475435, 46.7624038, 1069.0 ], [ 12.047777, 46.7620763, 1068.0 ], [ 12.0478849, 46.7619208, 1068.0 ], [ 12.0480484, 46.7617822, 1061.0 ], [ 12.0481709, 46.7617174, 1061.0 ], [ 12.0483085, 46.7616703, 1063.0 ], [ 12.0484584, 46.7616466, 1063.0 ], [ 12.0486235, 46.7616418, 1063.0 ], [ 12.0487701, 46.7616604, 1061.0 ], [ 12.0489186, 46.7616951, 1061.0 ], [ 12.049113, 46.7617691, 1060.0 ], [ 12.0492734, 46.7618439, 1069.0 ], [ 12.0494297, 46.7619086, 1067.0 ], [ 12.049643, 46.7620051, 1067.0 ], [ 12.0498001, 46.7620721, 1067.0 ], [ 12.0499307, 46.7621149, 1073.0 ], [ 12.0500499, 46.7621415, 1073.0 ], [ 12.0501604, 46.7621465, 1076.0 ], [ 12.0502704, 46.7621385, 1076.0 ], [ 12.0504047, 46.7621043, 1076.0 ], [ 12.0505321, 46.7620431, 1070.0 ], [ 12.0506781, 46.7619307, 1070.0 ], [ 12.0508524, 46.7617251, 1068.0 ], [ 12.0511057, 46.7614442, 1071.0 ], [ 12.0512507, 46.7613018, 1076.0 ], [ 12.0513879, 46.7612075, 1069.0 ], [ 12.051495, 46.7611479, 1069.0 ], [ 12.0516127, 46.761099, 1072.0 ], [ 12.0517062, 46.7610756, 1072.0 ], [ 12.0518349, 46.7610536, 1076.0 ], [ 12.051949, 46.7610589, 1076.0 ], [ 12.0521632, 46.7610944, 1077.0 ], [ 12.0523303, 46.7611397, 1077.0 ], [ 12.0525057, 46.7611955, 1075.0 ], [ 12.0526512, 46.7612412, 1064.0 ], [ 12.0528069, 46.761266, 1079.0 ], [ 12.0529662, 46.7612722, 1075.0 ], [ 12.0531372, 46.7612598, 1075.0 ], [ 12.0533065, 46.761245, 1066.0 ], [ 12.0534883, 46.7612263, 1068.0 ], [ 12.0538729, 46.7611973, 1070.0 ], [ 12.0540287, 46.7611817, 1070.0 ], [ 12.0541536, 46.7611582, 1070.0 ], [ 12.0542731, 46.761121, 1070.0 ], [ 12.0544518, 46.7610487, 1068.0 ], [ 12.0545809, 46.7610069, 1068.0 ], [ 12.0547329, 46.7609784, 1067.0 ], [ 12.0548886, 46.7609684, 1056.0 ], [ 12.0550756, 46.7609883, 1067.0 ], [ 12.0555309, 46.7610623, 1066.0 ], [ 12.0560145, 46.7611544, 1069.0 ], [ 12.0568359, 46.7612491, 1073.0 ], [ 12.0570333, 46.7612396, 1073.0 ], [ 12.0571394, 46.7612223, 1074.0 ], [ 12.0573397, 46.7611872, 1074.0 ], [ 12.0574233, 46.7611771, 1077.0 ], [ 12.0578772, 46.7611247, 1077.0 ], [ 12.0583132, 46.7610806, 1074.0 ], [ 12.0585452, 46.7610478, 1079.0 ], [ 12.0587244, 46.7610118, 1079.0 ], [ 12.0589851, 46.7609436, 1074.0 ], [ 12.0592693, 46.7608605, 1076.0 ], [ 12.0594992, 46.7607812, 1082.0 ], [ 12.0597206, 46.7607116, 1086.0 ], [ 12.0600804, 46.7605836, 1076.0 ], [ 12.0602612, 46.7605257, 1078.0 ], [ 12.0604208, 46.7604851, 1078.0 ], [ 12.0605708, 46.7604563, 1078.0 ], [ 12.0607156, 46.7604451, 1076.0 ], [ 12.0609129, 46.7604476, 1076.0 ], [ 12.0611344, 46.7604697, 1076.0 ], [ 12.0615356, 46.7605427, 1073.0 ], [ 12.062037, 46.7606398, 1071.0 ], [ 12.0623828, 46.7606857, 1067.0 ], [ 12.0627158, 46.760698, 1076.0 ], [ 12.0631016, 46.7606851, 1064.0 ], [ 12.063306, 46.7606919, 1064.0 ], [ 12.0635051, 46.7607254, 1080.0 ], [ 12.0637004, 46.760774, 1080.0 ], [ 12.063811, 46.7608196, 1080.0 ], [ 12.0638787, 46.7608608, 1080.0 ], [ 12.064021, 46.7609722, 1080.0 ], [ 12.0641133, 46.7610714, 1090.0 ], [ 12.0643368, 46.7613067, 1096.0 ], [ 12.0645641, 46.7615488, 1110.0 ], [ 12.064727, 46.7616963, 1098.0 ], [ 12.0648851, 46.7618114, 1090.0 ], [ 12.0652411, 46.76202, 1085.0 ], [ 12.065532, 46.7621915, 1092.0 ], [ 12.0658547, 46.7623635, 1098.0 ], [ 12.0659742, 46.762428, 1091.0 ], [ 12.0660759, 46.7624693, 1091.0 ], [ 12.0661788, 46.7625011, 1091.0 ], [ 12.0667977, 46.7626298, 1073.0 ], [ 12.0671436, 46.762702, 1080.0 ], [ 12.0673373, 46.7627566, 1080.0 ], [ 12.0674568, 46.7628124, 1075.0 ], [ 12.0675373, 46.762858, 1075.0 ], [ 12.0679817, 46.763136, 1076.0 ], [ 12.0683695, 46.7633698, 1081.0 ], [ 12.0684958, 46.7634349, 1076.0 ], [ 12.0686008, 46.7634733, 1091.0 ], [ 12.0687257, 46.7634969, 1091.0 ], [ 12.0689815, 46.7635202, 1089.0 ], [ 12.0691457, 46.7635452, 1087.0 ], [ 12.0693158, 46.7635775, 1082.0 ], [ 12.0694806, 46.7636233, 1082.0 ], [ 12.0696645, 46.7636892, 1075.0 ], [ 12.0699277, 46.763787, 1086.0 ], [ 12.0702016, 46.763905, 1084.0 ], [ 12.07044, 46.7640053, 1079.0 ], [ 12.0706693, 46.7641017, 1102.0 ], [ 12.0709197, 46.7641851, 1091.0 ], [ 12.0710681, 46.7642161, 1085.0 ], [ 12.0711532, 46.7642271, 1085.0 ], [ 12.0713523, 46.7642458, 1082.0 ], [ 12.0715007, 46.7642495, 1082.0 ], [ 12.0716539, 46.7642308, 1079.0 ], [ 12.0717976, 46.764195, 1079.0 ], [ 12.0719592, 46.7641434, 1078.0 ], [ 12.0722306, 46.7640179, 1076.0 ], [ 12.072757, 46.7637387, 1075.0 ], [ 12.0730485, 46.7635824, 1082.0 ], [ 12.0732422, 46.7634708, 1076.0 ], [ 12.0733986, 46.7633351, 1076.0 ], [ 12.0734992, 46.7632117, 1083.0 ], [ 12.0735734, 46.7630793, 1074.0 ], [ 12.0738309, 46.7625795, 1073.0 ], [ 12.0739816, 46.7622898, 1071.0 ], [ 12.0741561, 46.7619596, 1073.0 ], [ 12.0742559, 46.7617683, 1065.0 ], [ 12.074359, 46.7616269, 1072.0 ], [ 12.0744842, 46.76153, 1072.0 ], [ 12.0745926, 46.7614769, 1071.0 ], [ 12.0747296, 46.7614222, 1071.0 ], [ 12.0749057, 46.7613925, 1073.0 ], [ 12.0750161, 46.7613901, 1073.0 ], [ 12.0751184, 46.7614036, 1073.0 ], [ 12.0752895, 46.7614583, 1073.0 ], [ 12.0753709, 46.7615079, 1073.0 ], [ 12.0754238, 46.7615528, 1075.0 ], [ 12.0759993, 46.7619316, 1073.0 ], [ 12.0765647, 46.7623081, 1074.0 ], [ 12.0769463, 46.7625567, 1080.0 ], [ 12.0771014, 46.7626502, 1084.0 ], [ 12.0771627, 46.7626721, 1084.0 ], [ 12.0773118, 46.7627178, 1084.0 ], [ 12.0774673, 46.7627457, 1083.0 ], [ 12.0776886, 46.7627708, 1084.0 ], [ 12.0798028, 46.7630338, 1094.0 ], [ 12.0802566, 46.7630804, 1092.0 ], [ 12.0804417, 46.7630855, 1091.0 ], [ 12.0806402, 46.7630794, 1091.0 ], [ 12.080809, 46.7630602, 1090.0 ], [ 12.081076, 46.7630088, 1091.0 ], [ 12.0813761, 46.7629374, 1093.0 ], [ 12.0817152, 46.7628776, 1081.0 ], [ 12.0819743, 46.7628482, 1080.0 ], [ 12.0823489, 46.7628188, 1080.0 ], [ 12.0828654, 46.7627873, 1080.0 ], [ 12.0832156, 46.7627659, 1086.0 ], [ 12.0834921, 46.7627264, 1090.0 ], [ 12.083729, 46.7626767, 1090.0 ], [ 12.0839791, 46.7625958, 1084.0 ], [ 12.0844279, 46.762415, 1088.0 ], [ 12.0849553, 46.762211, 1086.0 ], [ 12.0856637, 46.7619499, 1086.0 ], [ 12.0866462, 46.7615983, 1089.0 ], [ 12.0868534, 46.7615386, 1091.0 ], [ 12.0870859, 46.7614869, 1086.0 ], [ 12.0874176, 46.7614301, 1088.0 ], [ 12.0877671, 46.7613875, 1089.0 ], [ 12.0881446, 46.7613662, 1089.0 ], [ 12.0891621, 46.7613448, 1083.0 ], [ 12.0895603, 46.7613398, 1082.0 ], [ 12.0899586, 46.7613297, 1081.0 ], [ 12.0904517, 46.7613033, 1079.0 ], [ 12.0907967, 46.7612708, 1082.0 ], [ 12.0910829, 46.7612312, 1078.0 ], [ 12.0915697, 46.7611522, 1084.0 ], [ 12.0918248, 46.7610965, 1085.0 ] ], [ [ 12.0920681, 46.7611213, 1085.0 ], [ 12.0919566, 46.7611025, 1085.0 ], [ 12.0918248, 46.7610965, 1085.0 ] ], [ [ 12.0918248, 46.7610965, 1085.0 ], [ 12.0919344, 46.7610299, 1085.0 ], [ 12.0919977, 46.7609616, 1076.0 ] ], [ [ 12.0920681, 46.7611213, 1085.0 ], [ 12.09201, 46.7610651, 1085.0 ], [ 12.0920007, 46.7610186, 1085.0 ], [ 12.0919977, 46.7609616, 1076.0 ] ], [ [ 12.0919977, 46.7609616, 1076.0 ], [ 12.0920165, 46.7609121, 1076.0 ], [ 12.0920622, 46.7608502, 1076.0 ], [ 12.0921323, 46.7608095, 1077.0 ], [ 12.0922276, 46.7607803, 1077.0 ], [ 12.0923501, 46.7607785, 1077.0 ], [ 12.0924698, 46.7608119, 1080.0 ], [ 12.0925208, 46.7608411, 1080.0 ] ], [ [ 12.0925954, 46.7609646, 1080.0 ], [ 12.0925847, 46.7610317, 1088.0 ], [ 12.0925527, 46.7610974, 1088.0 ], [ 12.092505, 46.7611394, 1088.0 ], [ 12.0924285, 46.7611716, 1088.0 ], [ 12.0923292, 46.761192, 1086.0 ], [ 12.0922293, 46.7611825, 1086.0 ], [ 12.0921357, 46.761158, 1086.0 ], [ 12.0920681, 46.7611213, 1085.0 ] ], [ [ 12.0925208, 46.7608411, 1080.0 ], [ 12.0925795, 46.7608484, 1080.0 ], [ 12.092665, 46.7608503, 1082.0 ], [ 12.092765, 46.7608349, 1082.0 ] ], [ [ 12.0925208, 46.7608411, 1080.0 ], [ 12.0925732, 46.7609022, 1080.0 ], [ 12.0925954, 46.7609646, 1080.0 ] ], [ [ 12.092765, 46.7608349, 1082.0 ], [ 12.0926467, 46.7609074, 1082.0 ], [ 12.0925954, 46.7609646, 1080.0 ] ], [ [ 12.092765, 46.7608349, 1082.0 ], [ 12.092952, 46.7607613, 1081.0 ], [ 12.0931061, 46.7607045, 1081.0 ], [ 12.0935182, 46.7605336, 1074.0 ], [ 12.0938496, 46.7603606, 1071.0 ], [ 12.0941091, 46.7602003, 1072.0 ], [ 12.0945184, 46.7599182, 1073.0 ], [ 12.0947487, 46.7597161, 1076.0 ], [ 12.0949308, 46.7595268, 1077.0 ], [ 12.0950622, 46.7593901, 1077.0 ], [ 12.095369, 46.7590121, 1108.0 ], [ 12.09602, 46.7579152, 1117.0 ], [ 12.0964191, 46.7572091, 1116.0 ], [ 12.0968135, 46.756745, 1122.0 ], [ 12.0974765, 46.7561878, 1131.0 ], [ 12.0983166, 46.7556631, 1136.0 ], [ 12.1016312, 46.7539874, 1122.0 ], [ 12.1027768, 46.7535476, 1114.0 ], [ 12.1035424, 46.7530636, 1107.0 ], [ 12.1037925, 46.7529296, 1103.0 ], [ 12.1041136, 46.7527924, 1109.0 ], [ 12.1046074, 46.7526909, 1100.0 ], [ 12.1051457, 46.7526063, 1100.0 ], [ 12.1057393, 46.7525227, 1095.0 ], [ 12.1063195, 46.7524369, 1091.0 ], [ 12.1065682, 46.7524045, 1091.0 ], [ 12.1075642, 46.7522747, 1092.0 ], [ 12.1082607, 46.7521492, 1090.0 ], [ 12.1088197, 46.7520274, 1090.0 ], [ 12.1092287, 46.7519281, 1090.0 ], [ 12.1093666, 46.7518946, 1091.0 ], [ 12.110322, 46.7516327, 1092.0 ], [ 12.1112531, 46.7513598, 1090.0 ], [ 12.1119969, 46.7511526, 1093.0 ], [ 12.1125194, 46.750973, 1091.0 ], [ 12.1131542, 46.7507161, 1095.0 ], [ 12.1138607, 46.7503895, 1094.0 ], [ 12.114561, 46.7500032, 1095.0 ], [ 12.1152231, 46.7496721, 1098.0 ], [ 12.1155192, 46.7495504, 1098.0 ], [ 12.1158694, 46.7494134, 1098.0 ], [ 12.1165791, 46.7492041, 1100.0 ], [ 12.1169897, 46.7490484, 1100.0 ], [ 12.1173215, 46.7488902, 1100.0 ], [ 12.1179187, 46.748481, 1100.0 ], [ 12.1182733, 46.7481555, 1108.0 ], [ 12.1186563, 46.7477609, 1110.0 ], [ 12.1189804, 46.7475006, 1110.0 ], [ 12.1192166, 46.7473679, 1110.0 ], [ 12.1194499, 46.747261, 1110.0 ], [ 12.1197634, 46.7471405, 1108.0 ], [ 12.1202122, 46.7470363, 1109.0 ], [ 12.1205863, 46.7469896, 1107.0 ], [ 12.121001, 46.7469582, 1106.0 ], [ 12.1220617, 46.7469387, 1111.0 ], [ 12.1226407, 46.7469004, 1112.0 ], [ 12.1231406, 46.746834, 1115.0 ], [ 12.1236809, 46.7466858, 1117.0 ], [ 12.1241286, 46.746511, 1116.0 ], [ 12.1241812, 46.7464819, 1116.0 ], [ 12.1243856, 46.7463689, 1116.0 ], [ 12.1244546, 46.7463281, 1116.0 ], [ 12.124508, 46.7463019, 1116.0 ], [ 12.124948, 46.746025, 1114.0 ], [ 12.1250943, 46.7459268, 1115.0 ], [ 12.1252811, 46.7458013, 1113.0 ], [ 12.1255137, 46.7456489, 1113.0 ], [ 12.1257457, 46.7454969, 1110.0 ], [ 12.1259692, 46.7453745, 1112.0 ], [ 12.1262872, 46.7452337, 1110.0 ], [ 12.1265696, 46.7451205, 1110.0 ], [ 12.1268272, 46.7450194, 1110.0 ], [ 12.1270326, 46.7449394, 1110.0 ], [ 12.1272008, 46.744907, 1111.0 ], [ 12.1273707, 46.7448888, 1112.0 ], [ 12.1278184, 46.744879, 1112.0 ], [ 12.1280874, 46.7448615, 1114.0 ], [ 12.1283307, 46.7448217, 1118.0 ], [ 12.1285519, 46.7447524, 1119.0 ], [ 12.1288533, 46.7446528, 1116.0 ], [ 12.129527, 46.7444052, 1116.0 ], [ 12.1305173, 46.7440725, 1122.0 ], [ 12.1309407, 46.7439539, 1121.0 ], [ 12.1311429, 46.7439065, 1120.0 ], [ 12.1313442, 46.7438593, 1119.0 ], [ 12.1317123, 46.7438042, 1118.0 ], [ 12.1321538, 46.7437757, 1118.0 ], [ 12.1322578, 46.7437717, 1118.0 ], [ 12.1330684, 46.7437404, 1121.0 ] ], [ [ 12.1332399, 46.7437338, 1120.0 ], [ 12.1332174, 46.74376, 1122.0 ], [ 12.1331795, 46.7437757, 1121.0 ], [ 12.1331353, 46.7437774, 1121.0 ], [ 12.1330951, 46.7437647, 1121.0 ], [ 12.1330684, 46.7437404, 1121.0 ] ], [ [ 12.1330684, 46.7437404, 1121.0 ], [ 12.1330614, 46.7437118, 1121.0 ], [ 12.1330739, 46.7436841, 1121.0 ], [ 12.1331035, 46.7436632, 1121.0 ], [ 12.1331435, 46.7436537, 1121.0 ], [ 12.1332005, 46.7436628, 1120.0 ], [ 12.1332378, 46.7436938, 1120.0 ], [ 12.1332399, 46.7437338, 1120.0 ] ], [ [ 12.1332399, 46.7437338, 1120.0 ], [ 12.1340838, 46.7436882, 1123.0 ], [ 12.1343069, 46.7436761, 1123.0 ], [ 12.1346833, 46.7436356, 1123.0 ], [ 12.1347793, 46.7436159, 1123.0 ], [ 12.1350549, 46.7435592, 1124.0 ], [ 12.1354224, 46.7434526, 1122.0 ], [ 12.1358008, 46.7433118, 1123.0 ], [ 12.1362276, 46.7431257, 1120.0 ], [ 12.1366581, 46.7429481, 1124.0 ], [ 12.1370536, 46.7428044, 1119.0 ], [ 12.1373934, 46.7427116, 1126.0 ], [ 12.1377356, 46.7426204, 1125.0 ], [ 12.1382896, 46.7424841, 1126.0 ], [ 12.1389647, 46.742326, 1136.0 ], [ 12.1395938, 46.7421932, 1139.0 ], [ 12.1404936, 46.7420277, 1133.0 ], [ 12.1414159, 46.7418558, 1128.0 ], [ 12.142994, 46.7415566, 1132.0 ], [ 12.1438301, 46.7414292, 1129.0 ], [ 12.1441937, 46.7413892, 1130.0 ], [ 12.1446052, 46.741351, 1130.0 ], [ 12.1449131, 46.7413165, 1130.0 ], [ 12.145213, 46.7412637, 1129.0 ], [ 12.1454636, 46.7412169, 1131.0 ], [ 12.1459005, 46.7411127, 1130.0 ], [ 12.146495, 46.7409654, 1129.0 ], [ 12.1469118, 46.7408708, 1127.0 ], [ 12.1472064, 46.740809, 1128.0 ], [ 12.147479, 46.7407469, 1129.0 ], [ 12.1479124, 46.7406307, 1128.0 ], [ 12.148523, 46.7404916, 1130.0 ], [ 12.1489529, 46.7403888, 1131.0 ], [ 12.1493196, 46.7402667, 1136.0 ], [ 12.1496924, 46.7400957, 1137.0 ], [ 12.1503224, 46.7397813, 1135.0 ], [ 12.1506756, 46.7396011, 1135.0 ], [ 12.150988, 46.7394585, 1134.0 ], [ 12.151294, 46.7393537, 1135.0 ], [ 12.1516666, 46.73926, 1134.0 ], [ 12.1525177, 46.7390645, 1136.0 ], [ 12.15299, 46.7389405, 1136.0 ], [ 12.1535266, 46.7388121, 1138.0 ], [ 12.1539996, 46.7387396, 1137.0 ], [ 12.1547324, 46.7386522, 1136.0 ], [ 12.1553294, 46.7385666, 1138.0 ], [ 12.155581, 46.7385113, 1141.0 ], [ 12.1558576, 46.7384391, 1140.0 ], [ 12.1561096, 46.7383532, 1139.0 ], [ 12.1563012, 46.7382649, 1138.0 ], [ 12.1565005, 46.7381593, 1137.0 ], [ 12.1566785, 46.7380472, 1137.0 ], [ 12.1568071, 46.7379704, 1138.0 ], [ 12.1569402, 46.7378674, 1139.0 ], [ 12.1570652, 46.7377707, 1139.0 ], [ 12.1575002, 46.7373956, 1139.0 ], [ 12.157753, 46.7371735, 1140.0 ], [ 12.1581407, 46.7369326, 1142.0 ], [ 12.1584641, 46.7367736, 1143.0 ], [ 12.1587599, 46.7366824, 1143.0 ], [ 12.1591374, 46.7365926, 1142.0 ], [ 12.1594519, 46.736556, 1141.0 ], [ 12.1598579, 46.7365496, 1141.0 ], [ 12.1603177, 46.736569, 1142.0 ], [ 12.1608551, 46.7366192, 1144.0 ], [ 12.1615102, 46.7366665, 1147.0 ], [ 12.1622365, 46.7366944, 1150.0 ], [ 12.1626684, 46.7366982, 1151.0 ], [ 12.1631421, 46.7366867, 1151.0 ], [ 12.1634256, 46.7366758, 1151.0 ], [ 12.1636613, 46.7366583, 1151.0 ], [ 12.1654496, 46.7364691, 1151.0 ], [ 12.1662026, 46.7363567, 1151.0 ], [ 12.1680308, 46.7361151, 1154.0 ], [ 12.1689481, 46.7360017, 1153.0 ], [ 12.1696693, 46.7359288, 1154.0 ], [ 12.1703023, 46.7358863, 1158.0 ], [ 12.1710595, 46.7358454, 1157.0 ], [ 12.1719361, 46.7358268, 1159.0 ], [ 12.1729723, 46.7358381, 1159.0 ], [ 12.1738088, 46.7358752, 1162.0 ], [ 12.174642, 46.7359291, 1161.0 ], [ 12.1754372, 46.7359756, 1156.0 ], [ 12.1759908, 46.7359793, 1159.0 ], [ 12.1764495, 46.7359626, 1161.0 ], [ 12.176843, 46.7359254, 1157.0 ], [ 12.1771985, 46.7358659, 1157.0 ], [ 12.1777249, 46.735755, 1159.0 ], [ 12.1781597, 46.7356675, 1170.0 ], [ 12.178638, 46.7355686, 1167.0 ], [ 12.1789545, 46.7355262, 1166.0 ], [ 12.1792888, 46.7354931, 1167.0 ], [ 12.1799157, 46.7354534, 1166.0 ], [ 12.1802595, 46.7354334, 1164.0 ], [ 12.1806086, 46.735435, 1164.0 ], [ 12.180919, 46.7354536, 1165.0 ], [ 12.181193, 46.7354839, 1165.0 ], [ 12.1815667, 46.7355332, 1163.0 ], [ 12.1820707, 46.7355876, 1162.0 ], [ 12.1824021, 46.7356228, 1162.0 ], [ 12.1827802, 46.7356484, 1162.0 ], [ 12.1831536, 46.73565, 1163.0 ], [ 12.1837533, 46.7356308, 1165.0 ], [ 12.1845725, 46.735594, 1166.0 ], [ 12.1850159, 46.7355716, 1167.0 ], [ 12.185835, 46.7355348, 1167.0 ], [ 12.1865235, 46.7354868, 1169.0 ], [ 12.1870042, 46.7354421, 1172.0 ], [ 12.187506, 46.7353813, 1175.0 ], [ 12.187982, 46.7353189, 1174.0 ], [ 12.1885398, 46.7352229, 1173.0 ], [ 12.1891139, 46.735111, 1174.0 ], [ 12.1897883, 46.734951, 1171.0 ], [ 12.1901617, 46.7348582, 1174.0 ], [ 12.1905139, 46.7347507, 1175.0 ], [ 12.1914406, 46.7344568, 1177.0 ], [ 12.1927869, 46.7340213, 1179.0 ], [ 12.1944065, 46.7334743, 1181.0 ], [ 12.1959456, 46.7329201, 1183.0 ], [ 12.1967682, 46.7326203, 1192.0 ], [ 12.1973936, 46.7323968, 1188.0 ], [ 12.1981417, 46.7321657, 1189.0 ], [ 12.198454, 46.7320766, 1189.0 ], [ 12.1987717, 46.7320112, 1188.0 ], [ 12.199842, 46.7318493, 1191.0 ], [ 12.2000509, 46.7318179, 1193.0 ], [ 12.2003839, 46.7317678, 1195.0 ], [ 12.2005929, 46.7317264, 1194.0 ], [ 12.2008176, 46.7316818, 1192.0 ], [ 12.2015659, 46.7315078, 1196.0 ], [ 12.2023039, 46.7313326, 1191.0 ], [ 12.2030113, 46.731208, 1191.0 ], [ 12.2036343, 46.7310731, 1190.0 ], [ 12.2037258, 46.731053, 1190.0 ], [ 12.2038016, 46.7310354, 1190.0 ], [ 12.2040709, 46.7309751, 1191.0 ], [ 12.2042209, 46.7309364, 1192.0 ], [ 12.2044286, 46.7308755, 1192.0 ], [ 12.2046495, 46.7308106, 1193.0 ], [ 12.2048368, 46.7307538, 1193.0 ], [ 12.2050929, 46.7307025, 1195.0 ], [ 12.2053296, 46.7306879, 1194.0 ], [ 12.2054638, 46.7306812, 1194.0 ], [ 12.2056609, 46.7306988, 1196.0 ], [ 12.205825, 46.7307359, 1195.0 ], [ 12.2059586, 46.7307924, 1195.0 ], [ 12.2061197, 46.7308474, 1194.0 ], [ 12.2063429, 46.7308665, 1194.0 ], [ 12.2069098, 46.7309351, 1195.0 ], [ 12.2082887, 46.7310831, 1199.0 ], [ 12.2086084, 46.7310963, 1199.0 ], [ 12.2088201, 46.73108, 1201.0 ], [ 12.2093383, 46.7309773, 1204.0 ], [ 12.2095569, 46.730905, 1203.0 ], [ 12.2097819, 46.7308146, 1205.0 ], [ 12.2103232, 46.7305649, 1204.0 ], [ 12.2104035, 46.7305271, 1204.0 ], [ 12.2107017, 46.7304122, 1206.0 ], [ 12.2108734, 46.7303612, 1206.0 ], [ 12.2110496, 46.7303244, 1207.0 ], [ 12.2113277, 46.7302965, 1208.0 ], [ 12.211765, 46.7302905, 1208.0 ], [ 12.2123151, 46.730262, 1208.0 ], [ 12.2126321, 46.73023, 1209.0 ], [ 12.2130571, 46.7301683, 1211.0 ], [ 12.2153885, 46.7297244, 1210.0 ], [ 12.2166536, 46.7294895, 1213.0 ], [ 12.2182925, 46.7292226, 1216.0 ], [ 12.2192224, 46.7290773, 1216.0 ], [ 12.2194319, 46.7290408, 1216.0 ], [ 12.2195281, 46.7290247, 1216.0 ] ] ] } }
]
}
